<?xml version="1.0" standalone="no"?>
<!DOCTYPE svg PUBLIC "-//W3C//DTD SVG 1.1//EN" "http://www.w3.org/Graphics/SVG/1.1/DTD/svg11.dtd">
<svg xmlns="http://www.w3.org/2000/svg"><defs><font id="flaticon" horiz-adv-x="512"><font-face units-per-em="512" ascent="448" descent="-64" x-height="240" cap-height="480"/><missing-glyph horiz-adv-x="512"/><glyph unicode="&#xE000;" glyph-name="authorship" horiz-adv-x="512" d="M0 448v-512h512V448H0zM472.40533333333 -25.112380952381H39.619047619048V394.58133333333h432.78628571429V-25.112380952381zM239.616 198.75352380952c0.024380952380952 35.035428571429 -29.500952380952 63.317333333333 -65.877333333333 63.317333333333s-65.901714285714 -28.281904761905 -65.901714285714 -63.317333333333v-35.181714285714h131.77904761905V198.75352380952zM146.28571428571 315.63580952381C146.28571428571 339.56046628571 157.20143847619 350.47619047619 173.73866666667 350.47619047619C184.13189485714 350.47619047619 195.04761904762 339.56046628571 195.04761904762 315.63580952381C195.04761904762 312.63000990476 184.13189485714 301.71428571429 173.73866666667 301.71428571429C157.20143847619 301.71428571429 146.28571428571 312.63000990476 146.28571428571 315.63580952381ZM297.17942857143 341.52838095238l124.14780952381 0l0 -41.374476190476l-121.90476190476 0ZM332.36114285714 269.11695238095l88.966095238095 0l0 -26.916571428571l-73.142857142857 0ZM92.355047619048 120.17371428571l328.97219047619 0l0 -32.963047619048l-316.95238095238 0ZM92.355047619048 47.567238095238l328.97219047619 0l0 -32.938666666667l-316.95238095238 0Z"/><glyph unicode="&#xE001;" glyph-name="binoculars5" horiz-adv-x="702" d="M232.46460871515 389.65901786382c23.994618431871 -2.5066148441588 49.883548845205 -12.762687794305 69.094551162269 -29.103520442484c-4.5157336123776 13.432394050377 -4.9558262949398 26.673443456163 -2.0473876971373 34.575977277823 c1.7412362657897 4.7070782569699 3.0423798490171 9.9690559832573 2.0091187682189 15.498916211974C297.88534270125 431.29561252709 275.93811196651 448 252.07743478586 448c-23.726735929442 0 -39.971896255326 -16.704387472905 -36.278944614695 -37.369609088871 c0.076537857836909 -0.30615143134763 0.26788250242918 -0.59316839823604 0.34442036026609 -0.88018536512445c0.17221018013304 -0.47836161148068 -18.656102847746 -4.0373720008969 -35.341355856193 -18.790044098961C179.42387323417 389.73555572165 177.10860303461 387.0375962329 174.42977801031 383.78473727483 C189.69908064878 389.02758053666 208.83354510801 392.05082592122 232.46460871515 389.65901786382zM690.39061215337 150.01898497646c-0.7079751849914 1.6072950145751 -1.4542192989013 3.1763211002317 -2.2195978772703 4.7453471858883c-1.2054712609313 2.5831527019957 -14.771806562523 22.04290305703 -30.19418491666 43.492637715823 c0 0 -57.269452126467 84.708274160999 -98.351147320428 142.22647432544c-9.6629045519097 9.854249196502 -35.1500112116 35.666641751999 -88.477763659466 30.136781523283c-30.155915987742 -3.1380521713133 -65.459002915016 -21.067045369609 -76.882278197175 -48.5250018686 c-1.5116226922789 -10.236938485687 -3.0423798490171 -18.522161596532 -4.381792361163 -18.522161596532c-3.2528589580686 0 -7.0414829209956 11.939905822558 -16.187756932506 21.04791090515c-5.3959189775021 5.3576500485836 -13.60460423051 8.6870468644891 -21.870692876897 8.6870468644891 c-8.2278197174677 0 -16.015546752373 -3.3293968159055 -21.373196800957 -8.7061813289484c-9.1462740115106 -9.1462740115106 -14.752672098064 -21.028776440691 -17.967262127214 -21.028776440691c-0.61230286269527 0 -1.683832872412 5.4915912997982 -2.946707526721 12.992301367815 c-8.5722400777338 30.634277599223 -46.860303460647 50.706330816952 -79.044472681067 54.054862097317c-51.98833993572 5.3959189775021 -77.418043202033 -18.943119814635 -87.597578294342 -29.275730622618c-40.928619478287 -57.403393377681 -98.676433216234 -143.10665969056 -98.676433216234 -143.10665969056 c-15.441512818596 -21.411465729875 -28.988713655729 -40.909485013828 -30.19418491666 -43.492637715823c-0.74624411390986 -1.5690260856566 -1.4542192989013 -3.1380521713133 -2.104791090515 -4.8218850437252C4.2861200388669 131.66903356006 0 111.71178712908 0 90.759548546229 c0 -85.569325061664 66.205247028926 -154.75954854623 151.75543762613 -154.75954854623c85.435383810449 0 151.50668958816 69.190223484565 151.50668958816 154.75954854623v23.745870393901c0 13.145377083489 10.007324912176 32.241572613798 21.966365199193 36.680768368338 c6.735331489648 2.5448837730772 16.015546752373 3.9416996786008 24.281635398759 3.9416996786008s19.899843037596 -1.3968159055236 26.635174527244 -3.9416996786008c11.978174751476 -4.4391957545407 22.78914717094 -23.535391284849 22.78914717094 -36.680768368338s0 -23.745870393901 0 -23.745870393901 c0 -85.569325061664 66.147843635548 -154.75954854623 151.56409298154 -154.75954854623s151.65976530383 69.190223484565 151.65976530383 154.75954854623C702.13917333134 111.71178712908 697.96786007923 131.66903356006 690.39061215337 150.01898497646zM154.95089319082 -20.775244786606 c-61.574706629793 0 -111.458255475 50.036624560879 -111.458255475 111.51565886838c0 61.440765378578 49.883548845205 111.41998654608 111.458255475 111.41998654608c61.40249644966 0 111.40085208162 -49.979221167501 111.40085208162 -111.41998654608 C266.3708797369 29.280514238732 216.35338964048 -20.775244786606 154.95089319082 -20.775244786606zM350.31377531953 202.54308991703c-23.01876074445 0 -42.210628597055 16.646984079528 -29.447940802751 29.447940802751c7.577247925854 7.5389789969355 17.967262127214 12.207788324987 29.524478660587 12.207788324987 c11.461544211077 0 21.832423947978 -4.6688093280514 29.352268480454 -12.207788324987C392.52440391659 219.22834292548 373.31340159952 202.54308991703 350.31377531953 202.54308991703zM551.99103071978 -13.695492936692c-59.087226250093 0 -107.26780775843 48.180581508334 -107.26780775843 107.22953882951 c0 59.125495179012 48.237984901712 107.21040436505 107.26780775843 107.21040436505c59.16376410793 0 107.15300097167 -48.084909186038 107.15300097167 -107.21040436505C659.124897227 34.465954107183 611.13566036326 -13.695492936692 551.99103071978 -13.695492936692zM400.67568577622 361.07212796173c19.153598923686 16.053815681292 44.755512370132 26.118543986845 68.482248299574 28.606024366545c23.803273787279 2.4109425218626 43.033410568802 -0.68884072053218 58.340982136184 -6.0082218401973 c-2.946707526721 3.6355482472532 -5.472456835339 6.5822557739741 -6.9266761342402 7.8451304282831c-16.379101577098 14.293444951043 -34.690784064579 17.775917482622 -34.556842813364 18.254279094103c0.11480678675536 0.28701696688841 0.19134464459227 0.57403393377681 0.26788250242918 0.88018536512445 C489.95709694297 431.29561252709 473.57799536587 448 449.6790492563 448C425.9331788624 448 403.60325883848 431.29561252709 399.91030719785 410.63039091113c-1.014126616339 -5.5107257642574 -0.47836161148068 -10.772703490545 1.2054712609313 -15.498916211974 C403.98594812766 387.30547873533 404.92353688616 374.29404290306 400.67568577622 361.07212796173z"/><glyph unicode="&#xE002;" glyph-name="calculator1" horiz-adv-x="512" d="M393.84615384615 448H118.15384615385C85.543384615385 448 59.076923076923 421.53353846154 59.076923076923 388.92307692308v-393.84615384615c0 -32.610461538462 26.466461538462 -59.076923076923 59.076923076923 -59.076923076923h275.69230769231c32.610461538462 0 59.076923076923 26.466461538462 59.076923076923 59.076923076923V388.92307692308C452.92307692308 421.53353846154 426.45661538462 448 393.84615384615 448zM413.53846153846 290.46153846154c0 -10.850461538462 -8.8418461538462 -19.692307692308 -19.692307692308 -19.692307692308H118.15384615385C107.30338461538 270.76923076923 98.461538461538 279.61107692308 98.461538461538 290.46153846154V388.92307692308c0 10.850461538462 8.8418461538462 19.692307692308 19.692307692308 19.692307692308h275.69230769231c10.850461538462 0 19.692307692308 -8.8418461538462 19.692307692308 -19.692307692308V290.46153846154zM177.23076923077 192c0 -10.850461538462 -8.8418461538462 -19.692307692308 -19.692307692308 -19.692307692308H118.15384615385 c-10.850461538462 0 -19.692307692308 8.8418461538462 -19.692307692308 19.692307692308v19.692307692308c0 10.850461538462 8.8418461538462 19.692307692308 19.692307692308 19.692307692308h39.384615384615c10.850461538462 0 19.692307692308 -8.8418461538462 19.692307692308 -19.692307692308V192zM295.38461538462 192c0 -10.850461538462 -8.8418461538462 -19.692307692308 -19.692307692308 -19.692307692308h-39.384615384615c-10.850461538462 0 -19.692307692308 8.8418461538462 -19.692307692308 19.692307692308v19.692307692308 c0 10.850461538462 8.8418461538462 19.692307692308 19.692307692308 19.692307692308h39.384615384615c10.850461538462 0 19.692307692308 -8.8418461538462 19.692307692308 -19.692307692308V192zM413.53846153846 192c0 -10.850461538462 -8.8418461538462 -19.692307692308 -19.692307692308 -19.692307692308h-39.384615384615c-10.850461538462 0 -19.692307692308 8.8418461538462 -19.692307692308 19.692307692308v19.692307692308c0 10.850461538462 8.8418461538462 19.692307692308 19.692307692308 19.692307692308h39.384615384615 c10.850461538462 0 19.692307692308 -8.8418461538462 19.692307692308 -19.692307692308V192zM177.23076923077 93.538461538462c0 -10.850461538462 -8.8418461538462 -19.692307692308 -19.692307692308 -19.692307692308H118.15384615385c-10.850461538462 0 -19.692307692308 8.8418461538462 -19.692307692308 19.692307692308v19.692307692308c0 10.850461538462 8.8418461538462 19.692307692308 19.692307692308 19.692307692308h39.384615384615c10.850461538462 0 19.692307692308 -8.8418461538462 19.692307692308 -19.692307692308V93.538461538462zM295.38461538462 93.538461538462c0 -10.850461538462 -8.8418461538462 -19.692307692308 -19.692307692308 -19.692307692308h-39.384615384615c-10.850461538462 0 -19.692307692308 8.8418461538462 -19.692307692308 19.692307692308v19.692307692308c0 10.850461538462 8.8418461538462 19.692307692308 19.692307692308 19.692307692308h39.384615384615c10.850461538462 0 19.692307692308 -8.8418461538462 19.692307692308 -19.692307692308V93.538461538462zM413.53846153846 93.538461538462c0 -10.850461538462 -8.8418461538462 -19.692307692308 -19.692307692308 -19.692307692308 h-39.384615384615c-10.850461538462 0 -19.692307692308 8.8418461538462 -19.692307692308 19.692307692308v19.692307692308c0 10.850461538462 8.8418461538462 19.692307692308 19.692307692308 19.692307692308h39.384615384615c10.850461538462 0 19.692307692308 -8.8418461538462 19.692307692308 -19.692307692308V93.538461538462zM177.23076923077 -4.9230769230769c0 -10.850461538462 -8.8418461538462 -19.692307692308 -19.692307692308 -19.692307692308H118.15384615385c-10.850461538462 0 -19.692307692308 8.8418461538462 -19.692307692308 19.692307692308v19.692307692308 c0 10.850461538462 8.8418461538462 19.692307692308 19.692307692308 19.692307692308h39.384615384615c10.850461538462 0 19.692307692308 -8.8418461538462 19.692307692308 -19.692307692308V-4.9230769230769zM295.38461538462 -4.9230769230769c0 -10.850461538462 -8.8418461538462 -19.692307692308 -19.692307692308 -19.692307692308h-39.384615384615c-10.850461538462 0 -19.692307692308 8.8418461538462 -19.692307692308 19.692307692308v19.692307692308c0 10.850461538462 8.8418461538462 19.692307692308 19.692307692308 19.692307692308h39.384615384615 c10.850461538462 0 19.692307692308 -8.8418461538462 19.692307692308 -19.692307692308V-4.9230769230769zM413.53846153846 -4.9230769230769c0 -10.850461538462 -8.8418461538462 -19.692307692308 -19.692307692308 -19.692307692308h-39.384615384615c-10.850461538462 0 -19.692307692308 8.8418461538462 -19.692307692308 19.692307692308v19.692307692308c0 10.850461538462 8.8418461538462 19.692307692308 19.692307692308 19.692307692308h39.384615384615c10.850461538462 0 19.692307692308 -8.8418461538462 19.692307692308 -19.692307692308V-4.9230769230769zM374.15384615385 369.23076923077v-59.076923076923h-39.384615384615V369.23076923077H374.15384615385 M374.15384615385 388.92307692308h-39.384615384615c-10.850461538462 0 -19.692307692308 -8.8418461538462 -19.692307692308 -19.692307692308v-59.076923076923c0 -10.850461538462 8.8418461538462 -19.692307692308 19.692307692308 -19.692307692308h39.384615384615c10.850461538462 0 19.692307692308 8.8418461538462 19.692307692308 19.692307692308V369.23076923077 C393.84615384615 380.08123076923 385.00430769231 388.92307692308 374.15384615385 388.92307692308L374.15384615385 388.92307692308z"/><glyph unicode="&#xE003;" glyph-name="car21" horiz-adv-x="512" d="M289.576 231.688c-54.992 0 -102.672 -8.536 -126.368 -62.384V169.36c0 0 -49.688 -23.048 -67.056 -27.864c-7.184 -2 -11.72 -14.24 -14.576 -27.904 c-6.648 -5.544 -10.976 -13.792 -10.976 -23.128c0 -6.888 2.392 -13.16 6.264 -18.24c-0.008 -0.128 -0.008 -0.192 -0.008 -0.192h0.168 c5.528 -7.128 14.088 -11.8 23.808 -11.8h1.112c0 4.064 0.512 8.008 1.392 11.8c5 21.592 23.36 38.056 45.928 40.152 c1.608 0.152 3.232 0.248 4.88 0.248c3.096 0 6.112 -0.32 9.064 -0.84c20.632 -3.616 37.056 -19.32 41.744 -39.56 c0.88 -3.8 1.392 -7.736 1.392 -11.8h99.896c0 4.064 0.512 8.008 1.392 11.8c5.352 23.136 26.048 40.4 50.808 40.4 s45.456 -17.264 50.808 -40.4c0.864 -3.728 1.36 -7.592 1.376 -11.576c15.64 1.16 28 14.072 28 30.008c0 8.272 -3.336 15.76 -8.728 21.224 C418.696 217.616 360.152 231.688 289.576 231.688zM358.432 100.408c-18.048 0 -33.352 -11.968 -38.408 -28.376c-1.152 -3.736 -1.776 -7.696 -1.776 -11.8c0 -22.16 18.024 -40.184 40.184 -40.184 s40.184 18.024 40.184 40.184c0 4.104 -0.624 8.072 -1.776 11.8C391.784 88.448 376.48 100.408 358.432 100.408zM358.432 38.272 c-12.128 0 -21.952 9.832 -21.952 21.952c0 4.352 1.304 8.392 3.496 11.8c3.904 6.088 10.688 10.152 18.464 10.152 c7.768 0 14.56 -4.064 18.464 -10.152c2.184 -3.416 3.496 -7.448 3.496 -11.8C380.392 48.104 370.56 38.272 358.432 38.272zM163.208 99.344c-2.92 0.68 -5.944 1.072 -9.064 1.072c-2.016 0 -3.984 -0.2 -5.928 -0.488 c-15.4 -2.296 -27.992 -13.312 -32.48 -27.896c-1.152 -3.736 -1.776 -7.696 -1.776 -11.8c0 -22.16 18.024 -40.184 40.184 -40.184 c22.16 0 40.184 18.024 40.184 40.184c0 4.104 -0.624 8.072 -1.776 11.8C188.368 85.608 177.168 96.104 163.208 99.344zM154.144 38.272 c-12.128 0 -21.952 9.832 -21.952 21.952c0 4.352 1.304 8.392 3.496 11.8c2.712 4.232 6.84 7.4 11.704 8.984 c2.144 0.696 4.384 1.168 6.752 1.168c3.24 0 6.296 -0.744 9.064 -2.008c3.872 -1.76 7.12 -4.6 9.4 -8.144 c2.184 -3.416 3.496 -7.448 3.496 -11.8C176.096 48.104 166.264 38.272 154.144 38.272zM11.472 285.328L34.984 234.496L254.608 336.128L474.24 234.496L497.76 285.328L254.608 397.832Z"/><glyph unicode="&#xE004;" glyph-name="car80" horiz-adv-x="512" d="M460.51328 173.18912c0 8.04864 -1.8176 15.73376 -5.09952 22.76352c-0.33792 1.78688 -0.72192 3.57376 -1.20832 5.38112l-35.52768 88.05376l-0.24064 0.7936 c-12.43136 37.01248 -30.11584 71.2704 -74.97216 71.2704H171.9808c-45.95712 0 -62.19776 -35.10784 -74.90048 -71.0656l-37.16608 -88.2688 c-5.37088 -8.60672 -8.42752 -18.4576 -8.42752 -28.928v-27.39712c0 -4.23424 0.50176 -8.37632 1.45408 -12.36992c-0.92672 -2.4064 -1.45408 -5.01248 -1.45408 -7.74656V44.1856 c0 -11.9552 9.68704 -21.64224 21.63712 -21.64224h44.9024c11.94496 0 21.632 9.68704 21.632 21.64224v40.74496h235.24864v-40.74496c0 -11.9552 9.68704 -21.64224 21.63712 -21.64224h42.33728 c11.95008 0 21.63712 9.68704 21.63712 21.64224V125.68064c0 2.72896 -0.52736 5.34016 -1.45408 7.74656c0.95232 3.9936 1.45408 8.13568 1.45408 12.36992V173.18912zM123.44832 281.54368c14.14656 39.91552 25.5232 52.10112 48.53248 52.10112h171.47904c22.84032 0 35.55328 -13.58848 48.48128 -51.92704l25.92256 -52.54144 c-8.46336 3.13344 -17.78176 4.87424 -27.5712 4.87424H121.70752c-8.81152 0 -17.23392 -1.41824 -25.00608 -3.98336L123.44832 281.54368zM145.72032 135.38816h-47.37536 c-8.52992 0 -15.44704 6.92224 -15.44704 15.45728c0 8.52992 6.91712 15.44704 15.44704 15.44704h47.37536c8.53504 0 15.45216 -6.91712 15.45216 -15.44704 C161.17248 142.3104 154.25024 135.38816 145.72032 135.38816zM313.07776 138.48064H202.88c-5.4016 0 -9.7792 4.38272 -9.7792 9.78432c0 5.40672 4.3776 9.78432 9.7792 9.78432 h110.19776c5.40672 0 9.78432 -4.3776 9.78432 -9.78432C322.86208 142.86336 318.48448 138.48064 313.07776 138.48064zM412.46208 135.38816h-47.37536 c-8.53504 0 -15.44704 6.92224 -15.44704 15.45728c0 8.52992 6.91712 15.44704 15.44704 15.44704h47.37536c8.53504 0 15.45216 -6.91712 15.45216 -15.44704 C427.91424 142.3104 420.99712 135.38816 412.46208 135.38816z"/><glyph unicode="&#xE005;" glyph-name="delivery8" horiz-adv-x="512" d="M494.248 158.248c-2.072 0.968 -1.888 4.84 -0.472 9.024c2.024 5.984 3.64 15.024 0.224 24.72 c-4.128 11.704 -20.824 18.904 -30.824 22.256c-4.192 1.408 -8.72 5.672 -10.008 9.896l-11.336 37.192c-1.288 4.224 -5.912 7.84 -10.32 8.072 l-116.52 6.152c-4.416 0.232 -12.192 0.816 -14.384 -3.024c-8.584 -15.056 -8.128 -71.896 -7.096 -104.56H59.504c-4.416 0 -8 -3.584 -8 -8v-20 c0 -4.416 3.576 -7.832 7.992 -7.632l51.424 2.384c4.488 12.904 16.64 22.248 31.048 22.248c13.344 0 24.8 -8 29.992 -19.416l133.392 6.184 c20.392 -1.36 66.08 -4.272 106.608 -5.944c5.312 11.864 17.184 20.184 31 20.184c14.216 0 26.376 -8.784 31.456 -21.192 c5.128 0.224 8.968 0.608 11.088 1.192c9.52 2.616 12.808 6.936 13.64 10.744C500.088 153.056 496.32 157.28 494.248 158.248zM276 180c0.72 0 1.376 0.232 2.04 0.408c0.392 -0.176 0.784 -0.408 1.208 -0.408c2.624 0 4.752 3.584 4.752 8v24V297 c0 4.416 -2.128 8 -4.752 8s-4.752 -3.584 -4.752 -8V220H21c-4.416 0 -8 -3.584 -8 -8v-24c0 -4.416 3.584 -8 8 -8H276zM166.96 124c0 4.848 -1.44 9.336 -3.832 13.176c-4.416 7.08 -12.208 11.824 -21.168 11.824c-9.776 0 -18.152 -5.664 -22.256 -13.84 c-1.696 -3.376 -2.744 -7.128 -2.744 -11.16c0 -13.808 11.192 -25 25 -25S166.96 110.192 166.96 124zM468.96 124c0 4.592 -1.296 8.84 -3.384 12.584c-4.44 7.968 -12.848 13.416 -22.616 13.416c-9.408 0 -17.576 -5.048 -22.144 -12.536 c-2.4 -3.936 -3.856 -8.52 -3.856 -13.464c0 -14.36 11.64 -26 26 -26S468.96 109.64 468.96 124z"/><glyph unicode="&#xE006;" glyph-name="envelope18" horiz-adv-x="512" d="M14 16.992h484V288.344H14V16.992zM30 272.344h452v-239.352H30V272.344zM395.72 214.904c-21.648 -5.6 -41.696 -3.48 -66.408 5.04c-19.928 6.88 -36.728 6.744 -53.392 -6.816 c-4.24 -3.448 1.792 -9.416 5.992 -5.992c25.544 20.776 51.912 -1.88 79.208 -4.696c12.288 -1.264 23.6 0.072 34.6 3.064v-7.56 c-21.648 -5.6 -41.696 -3.48 -66.408 5.04c-19.928 6.88 -36.728 6.744 -53.392 -6.816c-4.24 -3.448 1.792 -9.416 5.992 -5.992 c25.544 20.776 51.912 -1.88 79.208 -4.696c12.288 -1.264 23.6 0.072 34.6 3.064v-7.56c-21.648 -5.6 -41.696 -3.48 -66.408 5.04 c-19.928 6.88 -36.728 6.744 -53.392 -6.816c-4.24 -3.448 1.792 -9.416 5.992 -5.992c25.544 20.776 51.912 -1.88 79.208 -4.696 c12.288 -1.264 23.6 0.072 34.6 3.064v-11.736H456V241.336h-60.28V214.904zM403.72 207.984c2.208 0.76 4.408 1.56 6.6 2.44v-7.656 c-2.232 -0.896 -4.416 -1.616 -6.6 -2.352V207.984zM403.72 191.032c2.208 0.76 4.408 1.56 6.6 2.44v-7.656 c-2.232 -0.896 -4.416 -1.616 -6.6 -2.352V191.032zM403.72 174.072c2.208 0.76 4.408 1.56 6.6 2.44V172.8h31.088v55.6H410.32v-8.68 c-2.232 -0.896 -4.416 -1.616 -6.6 -2.352v15.968H448v-65.472h-44.28V174.072zM54 99.808l154.712 0l0 -17.192l-152 0ZM54 71.352l178 0l0 -17.192l-176 0ZM54 129.192l178 0l0 -17.192l-176 0ZM100 175.872c22.648 0 41 18.36 41 41c0 22.648 -18.36 41 -41 41s-41 -18.36 -41 -41 C59 194.224 77.352 175.872 100 175.872zM100 246.904c16.56 0 30.032 -13.472 30.032 -30.032s-13.472 -30.032 -30.032 -30.032 s-30.032 13.472 -30.032 30.032S83.44 246.904 100 246.904zM80 216.872C80 232.836556 87.163444 240 100 240C104.836556 240 112 232.836556 112 216.872C112 215.163444 104.836556 208 100 208C87.163444 208 80 215.163444 80 216.872Z"/><glyph unicode="&#xE007;" glyph-name="envelope20" horiz-adv-x="512" d="M500 305.344h-488v-273.592h488V305.344zM484 47.752h-456V289.344h456V47.752zM385.048 199.92l59.808 6.024c8.088 0.816 13.984 8.032 13.168 16.12l-2.952 29.296c-0.816 8.088 -8.032 13.984 -16.12 13.168 l-59.808 -6.024c-8.088 -0.816 -13.984 -8.032 -13.168 -16.12l2.952 -29.296C369.736 205 376.96 199.104 385.048 199.92zM354.72 207.04c1.208 -12.016 10.744 -21.088 22.168 -21.088c0.704 0 1.408 0.032 2.12 0.104l73.408 7.4 c5.92 0.6 11.216 3.6 14.928 8.464c3.64 4.784 5.312 10.8 4.688 16.944l-3.864 38.432c-1.28 12.76 -12.024 22.232 -24.288 20.984 l-73.424 -7.4c-12.104 -1.224 -20.896 -12.624 -19.608 -25.408L354.72 207.04zM371.256 262.92l73.416 7.4c0.448 0.048 0.88 0.064 1.32 0.064 c7.304 0 13.416 -5.976 14.216 -13.888l3.864 -38.432c0.416 -4.12 -0.688 -8.128 -3.104 -11.288c-2.344 -3.08 -5.672 -4.984 -9.36 -5.352 l-73.408 -7.4c-7.84 -0.832 -14.688 5.432 -15.536 13.824l-3.872 38.424C357.952 254.672 363.544 262.136 371.256 262.92zM45.336 271.4l113.568 0l0 -17.704l-112 0ZM45.336 242.088l130.664 0l0 -17.704l-128 0ZM172 146.536l131.536 0l0 -16.264l-128 0ZM172 119.616l151.336 0l0 -16.264l-144 0ZM172 174.32l151.336 0l0 -16.264l-144 0Z"/><glyph unicode="&#xE008;" glyph-name="envelope22" horiz-adv-x="512" d="M17.112 132.36L17.264 132.576L41.112 116.128L41.112 152.832L17.112 169.384ZM432.12 280.08L463.672 280.08L463.672 265.736L487.672 249.184L487.672 304.08L450.088 304.08ZM410.112 304.08L368.048 304.08L350.08 280.08L392.136 280.08ZM268.04 280.08L310.096 280.08L328.072 304.08L286.008 304.08ZM186 280.08L228.064 280.08L246.032 304.08L203.968 304.08ZM17.112 207.944L17.256 208.152L41.112 191.696L41.112 228.4L17.112 244.952ZM103.96 280.08L146.024 280.08L163.992 304.08L121.928 304.08ZM17.112 283.512L17.264 283.728L41.112 267.28L41.112 280.08L63.984 280.08L81.952 304.08L17.112 304.08ZM17.112 40.264L56.12 40.264L74.088 64.264L41.112 64.264L41.112 77.248L17.112 93.8ZM463.672 114.584L487.672 98.032L487.672 134.736L463.672 151.288ZM342.216 40.264L384.28 40.264L402.248 64.264L360.184 64.264ZM487.672 210.304L463.672 226.856L463.672 190.16L487.672 173.608ZM487.672 59.152L463.672 75.704L463.672 64.264L442.224 64.264L424.256 40.264L487.672 40.264ZM114.064 64.264L96.096 40.264L138.16 40.264L156.128 64.264ZM260.176 40.264L302.24 40.264L320.208 64.264L278.144 64.264ZM220.2 40.264L238.168 64.264L196.104 64.264L178.136 40.264ZM238.224 250.664c-19.232 0 -34.88 -15.648 -34.88 -34.88s15.648 -34.88 34.88 -34.88s34.88 15.648 34.88 34.88S257.456 250.664 238.224 250.664zM238.224 186.512c-16.144 0 -29.28 13.136 -29.28 29.28s13.136 29.28 29.28 29.28s29.28 -13.136 29.28 -29.28S254.368 186.512 238.224 186.512zM238.224 237.248c-11.832 0 -21.456 -9.624 -21.456 -21.456c0 -11.832 9.624 -21.456 21.456 -21.456s21.456 9.624 21.456 21.456 C259.68 227.624 250.056 237.248 238.224 237.248zM238.224 199.936c-8.744 0 -15.848 7.112 -15.848 15.848s7.112 15.856 15.848 15.856 s15.848 -7.112 15.848 -15.856S246.968 199.936 238.224 199.936zM287.672 235.68c-4.24 -3.456 1.792 -9.416 5.992 -5.992c25.544 20.776 51.912 -1.88 79.208 -4.696 c23.376 -2.416 43.288 4.456 64.056 14.632c4.912 2.408 0.608 9.712 -4.28 7.32c-32.584 -15.96 -57.672 -16.152 -91.584 -4.448 C321.136 249.376 304.336 249.24 287.672 235.68zM293.664 212.736c25.544 20.776 51.912 -1.88 79.208 -4.696c23.376 -2.416 43.288 4.456 64.056 14.632 c4.912 2.408 0.608 9.712 -4.28 7.32c-32.584 -15.96 -57.672 -16.152 -91.584 -4.448c-19.928 6.88 -36.728 6.744 -53.392 -6.816 C283.432 215.28 289.464 209.312 293.664 212.736zM432.648 213.032c-32.584 -15.96 -57.672 -16.152 -91.584 -4.448c-19.928 6.88 -36.728 6.744 -53.392 -6.816 c-4.24 -3.456 1.792 -9.416 5.992 -5.992c25.544 20.776 51.912 -1.88 79.208 -4.696c23.376 -2.416 43.288 4.456 64.056 14.624 C441.84 208.12 437.536 215.432 432.648 213.032zM63.128 100.944v-13.4v-8.096h22.336h21.928h37.2v60.28H63.128V100.944zM71.128 131.736h65.472v-44.28h-39.888h-5.248H71.128V131.736zM76.056 125.136l55.6 0l0 -31.08l-48 0Z"/><glyph unicode="&#xE009;" glyph-name="fax" horiz-adv-x="512" d="M436.57728 305.58208h-6.58944V416.33792H202.99776v-110.76096H75.42272c-5.65248 0 -10.24 -4.58752 -10.24 -10.24v-317.44c0 -5.65248 4.58752 -10.24 10.24 -10.24h361.14944c5.65248 0 10.24 4.58752 10.24 10.24 v317.44C446.81728 300.99456 442.22976 305.58208 436.57728 305.58208zM208.11776 411.21792h216.74496v-105.64096H208.11776V411.21792zM161.18272 184.8576 c0 -4.34688 -3.11296 -7.95136 -7.22944 -8.7296v-79.02208c4.11648 -0.78336 7.22944 -4.38272 7.22944 -8.7296V-6.7072c0 -4.9152 -3.98336 -8.89856 -8.89344 -8.89856H102.2464 c-4.9152 0 -8.89856 3.98336 -8.89856 8.89856V88.38144c0 4.34688 3.11296 7.94624 7.22944 8.7296V176.128c-4.11648 0.77824 -7.22944 4.38272 -7.22944 8.7296V279.94624 c0 4.9152 3.98336 8.89344 8.89856 8.89344h50.04288c4.91008 0 8.89344 -3.97824 8.89344 -8.89344V184.8576zM191.47776 208.29696V281.68704c0 5.65248 4.58752 10.24 10.24 10.24h207.37536 c5.65248 0 13.824 -4.58752 13.824 -10.24v-73.39008c0 -5.65248 -8.17152 -10.24 -13.824 -10.24H201.71776C196.06528 198.05696 191.47776 202.63936 191.47776 208.29696zM195.74272 166.70208v7.04 c0 5.65248 4.58752 10.24 10.24 10.24h62.72c5.65248 0 10.24 -4.58752 10.24 -10.24v-7.04c0 -5.65248 -4.58752 -10.24 -10.24 -10.24h-62.72C200.33024 156.46208 195.74272 161.04448 195.74272 166.70208zM242.95936 -7.97696c0 -3.12832 -2.5344 -5.66784 -5.66784 -5.66784h-31.89248c-3.12832 0 -5.66784 2.53952 -5.66784 5.66784v31.89248c0 3.13344 2.53952 5.66784 5.66784 5.66784 h31.89248c3.13344 0 5.66784 -2.5344 5.66784 -5.66784V-7.97696zM242.95936 45.14304c0 -3.12832 -2.5344 -5.66784 -5.66784 -5.66784h-31.89248 c-3.12832 0 -5.66784 2.53952 -5.66784 5.66784v31.89248c0 3.13344 2.53952 5.66784 5.66784 5.66784h31.89248c3.13344 0 5.66784 -2.5344 5.66784 -5.66784V45.14304zM242.95936 96.34304c0 -3.12832 -2.5344 -5.66784 -5.66784 -5.66784h-31.89248c-3.12832 0 -5.66784 2.53952 -5.66784 5.66784v31.89248c0 3.13344 2.53952 5.66784 5.66784 5.66784 h31.89248c3.13344 0 5.66784 -2.5344 5.66784 -5.66784V96.34304zM297.99936 -7.97696c0 -3.12832 -2.5344 -5.66784 -5.66784 -5.66784h-31.89248 c-3.12832 0 -5.66784 2.53952 -5.66784 5.66784v31.89248c0 3.13344 2.53952 5.66784 5.66784 5.66784h31.89248c3.13344 0 5.66784 -2.5344 5.66784 -5.66784V-7.97696zM297.99936 45.14304c0 -3.12832 -2.5344 -5.66784 -5.66784 -5.66784h-31.89248c-3.12832 0 -5.66784 2.53952 -5.66784 5.66784v31.89248c0 3.13344 2.53952 5.66784 5.66784 5.66784 h31.89248c3.13344 0 5.66784 -2.5344 5.66784 -5.66784V45.14304zM297.99936 96.34304c0 -3.12832 -2.5344 -5.66784 -5.66784 -5.66784h-31.89248 c-3.12832 0 -5.66784 2.53952 -5.66784 5.66784v31.89248c0 3.13344 2.53952 5.66784 5.66784 5.66784h31.89248c3.13344 0 5.66784 -2.5344 5.66784 -5.66784V96.34304zM351.11936 -7.97696c0 -3.12832 -2.5344 -5.66784 -5.66784 -5.66784h-31.89248c-3.12832 0 -5.66784 2.53952 -5.66784 5.66784v31.89248c0 3.13344 2.53952 5.66784 5.66784 5.66784 h31.89248c3.13344 0 5.66784 -2.5344 5.66784 -5.66784V-7.97696zM351.11936 45.14304c0 -3.12832 -2.5344 -5.66784 -5.66784 -5.66784h-31.89248 c-3.12832 0 -5.66784 2.53952 -5.66784 5.66784v31.89248c0 3.13344 2.53952 5.66784 5.66784 5.66784h31.89248c3.13344 0 5.66784 -2.5344 5.66784 -5.66784V45.14304zM351.11936 96.34304c0 -3.12832 -2.5344 -5.66784 -5.66784 -5.66784h-31.89248c-3.12832 0 -5.66784 2.53952 -5.66784 5.66784v31.89248c0 3.13344 2.53952 5.66784 5.66784 5.66784 h31.89248c3.13344 0 5.66784 -2.5344 5.66784 -5.66784V96.34304zM374.20032 156.46208h-62.72c-5.65248 0 -10.24 4.58752 -10.24 10.24v7.04c0 5.65248 4.58752 10.24 10.24 10.24h62.72 c5.65248 0 10.24 -4.58752 10.24 -10.24v-7.04C384.44032 161.04448 379.8528 156.46208 374.20032 156.46208zM427.42272 -7.97696c0 -3.12832 -2.5344 -5.66784 -5.66784 -5.66784h-31.89248 c-3.12832 0 -5.66784 2.53952 -5.66784 5.66784v31.89248c0 3.13344 2.53952 5.66784 5.66784 5.66784h31.89248c3.13344 0 5.66784 -2.5344 5.66784 -5.66784V-7.97696zM427.42272 45.14304c0 -3.12832 -2.5344 -5.66784 -5.66784 -5.66784h-31.89248c-3.12832 0 -5.66784 2.53952 -5.66784 5.66784v31.89248c0 3.13344 2.53952 5.66784 5.66784 5.66784 h31.89248c3.13344 0 5.66784 -2.5344 5.66784 -5.66784V45.14304zM427.42272 96.34304c0 -3.12832 -2.5344 -5.66784 -5.66784 -5.66784h-31.89248 c-3.12832 0 -5.66784 2.53952 -5.66784 5.66784v31.89248c0 3.13344 2.53952 5.66784 5.66784 5.66784h31.89248c3.13344 0 5.66784 -2.5344 5.66784 -5.66784V96.34304zM401.66912 390.05696v-6.82496H226.73408v6.82496H401.66912zM254.72512 358.38976h124.59008v-6.82496H254.72512V358.38976zM254.72512 328.7808h124.59008v-6.82496H254.72512 V328.7808z"/><glyph unicode="&#xE00A;" glyph-name="fire14" horiz-adv-x="512" d="M160.504 -64c-34.123 71.004 -15.951 111.689 10.275 150.021c28.72 41.979 36.122 83.533 36.122 83.533 s22.577 -29.35 13.546 -75.254c39.886 44.4 47.413 115.14 41.391 142.232C351.995 173.527 390.526 37.105 338.599 -64 c276.187 156.266 68.699 390.086 32.577 416.425c12.041 -26.338 14.324 -70.925 -10 -92.563C320 416 218.19 448 218.19 448 c12.041 -80.522 -43.648 -168.572 -97.348 -234.365c-1.887 32.108 -3.891 54.264 -20.775 84.99c-3.79 -58.328 -48.366 -105.874 -60.437 -164.314 C23.279 55.168 51.878 -2.779 160.504 -64z"/><glyph unicode="&#xE00B;" glyph-name="license" horiz-adv-x="640" d="M576 448H64C28.8 448 0 419.2 0 384v-384c0 -35.2 28.8 -64 64 -64h512c35.2 0 64 28.8 64 64V384C640 419.2 611.2 448 576 448zM576 0H64V384h512V0zM288 124.8H128v-57.6h160V124.8zM288 220.8H128v-57.6h160V220.8zM288 316.8H128v-57.6h160V316.8zM508.8 112c0 0 -54.4 14.2336 -54.4 42.1696 C454.4 180.8 489.6 192 489.6 246.4c0 44.1792 -13.4272 70.4 -57.6 70.4c-44.1856 0 -57.6 -26.2208 -57.6 -70.4c0 -54.4 35.1872 -65.6 35.1872 -92.2304 c0 -27.936 -54.3872 -42.1696 -54.3872 -42.1696c-3.2 0 -3.2 -44.8 -3.2 -44.8h160C512 67.2 512 112 508.8 112z"/><glyph unicode="&#xE00C;" glyph-name="male58" horiz-adv-x="512" d="M256.84992 295.02464c-0.84992 0.03072 -1.67936 0.08192 -2.51904 0.07168h3.34848C257.3824 295.09632 257.10592 295.02464 256.84992 295.02464zM358.7584 254.30016 c0.62464 0 1.20832 -0.04096 1.82272 -0.06144c0.21504 0 0.39936 0.06144 0.60416 0.06144H358.7584zM209.26464 213.52448c0.12288 0.02048 0.21504 0.1536 0.32768 0.18432 c7.45472 -27.00288 26.78784 -47.2064 46.40768 -47.63648c17.88928 0.8192 39.8336 20.67456 47.14496 47.52384c3.36896 -0.2048 6.71744 3.76832 7.66976 9.28768 c0.99328 5.75488 -1.05472 10.88512 -4.52608 11.48928c-0.22528 0.04096 -0.44032 -0.1024 -0.65536 -0.1024c-1.024 44.43136 -22.1184 60.09856 -48.71168 60.7744 c-27.40224 -0.11264 -51.95776 -19.17952 -50.40128 -60.78464c-0.256 0 -0.50176 0.1536 -0.768 0.11264c-3.47136 -0.60416 -5.50912 -5.7344 -4.52608 -11.48928 C202.15808 217.12896 205.7728 212.9408 209.26464 213.52448zM255.61088 166.0416h0.75776c-0.14336 0 -0.28672 0.02048 -0.43008 0.02048 C255.82592 166.06208 255.73376 166.0416 255.61088 166.0416zM326.20544 195.4304c0.09216 0.03072 0.1536 0.11264 0.22528 0.13312 c5.39648 -19.48672 19.33312 -34.05824 33.4848 -34.3552c12.92288 0.59392 28.74368 14.91968 34.01728 34.28352c2.41664 -0.13312 4.85376 2.7136 5.51936 6.69696 c0.69632 4.15744 -0.74752 7.87456 -3.26656 8.2944c-0.1536 0.03072 -0.3072 -0.08192 -0.4608 -0.08192c-0.72704 32.06144 -15.9744 43.3664 -35.15392 43.84768 c-19.7632 -0.08192 -37.4784 -13.84448 -36.36224 -43.84768c-0.19456 0 -0.3584 0.12288 -0.54272 0.08192c-2.49856 -0.41984 -3.9936 -4.13696 -3.2768 -8.2944 C321.08544 198.0416 323.6864 195.0208 326.20544 195.4304zM360.2432 161.18784c-0.12288 0 -0.2048 0.02048 -0.31744 0.02048c-0.06144 0 -0.16384 -0.01024 -0.21504 -0.02048H360.2432zM292.92544 158.3616l-24.91392 -48.72192l-3.92192 31.6928l6.15424 5.03808h-14.8992h-13.6192l6.15424 -5.03808l-3.93216 -31.6928l-24.8832 48.72192 c-43.264 -5.8368 -74.32192 -24.3712 -74.32192 -69.45792h222.5152C367.23712 133.9904 336.1792 152.5248 292.92544 158.3616zM150.8864 254.30016 c0.62464 0 1.21856 -0.04096 1.81248 -0.06144c0.2048 0 0.4096 0.06144 0.60416 0.06144H150.8864zM157.9008 143.37024l4.43392 3.62496h-10.74176h-9.82016l4.43392 -3.62496 l-2.83648 -22.86592L125.44 155.648c-31.22176 -4.20864 -53.62688 -17.59232 -53.62688 -50.11456h71.5264c2.36544 12.12416 7.51616 22.26176 15.49312 30.52544L157.9008 143.37024zM386.56 155.648l-17.94048 -35.15392l-2.83648 22.86592l4.43392 3.62496h-10.752h-9.82016l4.44416 -3.62496l-0.90112 -7.30112c7.94624 -8.27392 13.09696 -18.41152 15.48288 -30.52544 h71.51616C440.17664 138.05568 417.78176 151.43936 386.56 155.648zM152.3712 161.18784c-0.11264 0 -0.2048 0.02048 -0.3072 0.02048c-0.07168 0 -0.16384 -0.01024 -0.23552 -0.02048 H152.3712zM118.35392 195.4304c0.09216 0.03072 0.1536 0.11264 0.24576 0.13312c5.376 -19.48672 19.31264 -34.05824 33.47456 -34.3552 c12.9024 0.59392 28.73344 14.91968 34.00704 34.28352c2.41664 -0.13312 4.85376 2.7136 5.5296 6.69696c0.70656 4.15744 -0.768 7.87456 -3.2768 8.2944 c-0.16384 0.03072 -0.31744 -0.08192 -0.47104 -0.08192c-0.72704 32.06144 -15.96416 43.3664 -35.14368 43.84768c-19.7632 -0.08192 -37.4784 -13.84448 -36.36224 -43.84768 c-0.19456 0 -0.3584 0.12288 -0.54272 0.08192c-2.5088 -0.41984 -3.98336 -4.13696 -3.2768 -8.2944C113.24416 198.0416 115.83488 195.0208 118.35392 195.4304z"/><glyph unicode="&#xE00D;" glyph-name="men1" horiz-adv-x="512" d="M490.592 228.32c-11.704 42.616 -38.064 77.52 -77.504 97.912c-2.848 1.472 -5.592 2.192 -8.248 2.536 c-7.344 2.336 -15.52 3.28 -23.768 2.576c-22.056 -1.896 -39.504 -12.352 -46.976 -26.888c-1.64 -2.128 -3.224 -4.408 -4.632 -7.056 c-14.728 -26.136 -44.416 -49.168 -70.4 -65.76c-1.512 0.6 -3.152 1.104 -4.968 1.432c-31.192 5.744 -58.16 19.28 -75.456 46.696 c-2.424 3.84 -5.416 6.488 -8.664 8.312c-9.056 9.784 -23.456 16.488 -40.672 17.96c-8.24 0.704 -16.4 -0.24 -23.744 -2.568 c-2.648 -0.336 -5.384 -1.064 -8.232 -2.536c-39.464 -20.384 -65.816 -55.296 -77.512 -97.912c-8.168 -29.744 36.92 -46.632 45.136 -16.736 c2.8 10.184 6.504 19.76 11.16 28.64c-0.48 -24.968 -0.96 -49.944 -1.44 -74.904c-0.008 -0.408 0.088 -0.792 0.088 -1.192l-0.264 -14 l-2.928 -69.832L65.272 -32.392c-0.04 -2.192 0.472 -4.256 1.368 -6.168l-0.032 -0.296C66.432 -48.184 75.592 -55.84 87.088 -56 c11.464 -0.144 20.928 7.296 21.12 16.6l12.272 114.896l2.128 17.048l5.072 -0.08l5.92 -68.16l4.04 -59.168 c-0.048 -2.552 0.664 -4.968 1.888 -7.168c1.968 -7.512 10.096 -13.224 19.984 -13.344c11.488 -0.144 20.928 7.28 21.12 16.592l-2.96 87.504 l-0.232 69.872l0.216 11.592c0.024 0.368 0.104 0.712 0.112 1.08c0.512 26.848 1.024 53.696 1.536 80.544 c18.264 -12.448 39.216 -20.944 62 -25.136c6.624 -1.216 12.344 0.128 17.04 2.896c7.24 -3.992 16.328 -4.792 25.136 0.688 c15.4 9.568 32.472 20.752 47.856 33.6c0.432 -22.432 0.856 -44.864 1.288 -67.296c0.008 -0.36 0.088 -0.712 0.112 -1.072l0.216 -11.632 l-0.224 -69.84l-2.952 -87.512c0.176 -9.312 9.624 -16.76 21.112 -16.592c9.888 0.12 18.016 5.832 20 13.36 c1.2 2.184 1.92 4.608 1.872 7.168l4.048 59.168l5.912 68.168l5.088 0.064l2.136 -17.048l12.256 -114.888 c0.184 -9.304 9.64 -16.736 21.12 -16.6c11.504 0.168 20.664 7.832 20.48 17.136l-0.032 0.288c0.896 1.92 1.424 4.008 1.376 6.176 l-6.296 87.408l-2.936 69.832l-0.264 14.136c0 0.36 0.088 0.704 0.08 1.064c-0.48 24.976 -0.96 49.944 -1.44 74.92 c4.648 -8.888 8.368 -18.472 11.168 -28.664C453.664 181.688 498.752 198.576 490.592 228.32zM336 385.184C336 414.09139 353.90861 432 382.928 432C398.09139 432 416 414.09139 416 385.184C416 369.90861 398.09139 352 382.928 352C353.90861 352 336 369.90861 336 385.184ZM80 359.888C80 382.09139 97.90861 400 127.48 400C142.09139 400 160 382.09139 160 359.888C160 337.90861 142.09139 320 127.48 320C97.90861 320 80 337.90861 80 359.888Z"/><glyph unicode="&#xE00E;" glyph-name="office" horiz-adv-x="543" d="M0 -44.254339900324h43.447302404924V299.79623373583H0V-44.254339900324zM488.91487440211 299.79623373583V448H271.79824062615v-148.20376626417H186.83881325886v-344.05057363615 h356.55216242432V299.79623373583H488.91487440211zM336.05298190454 27.347225474128h-41.906010636519v41.888885172425h41.906010636519V27.347225474128zM336.05298190454 96.636853195973h-41.906010636519v41.854634244239h41.906010636519V96.636853195973zM336.05298190454 162.65551727598 h-41.906010636519v41.888885172425h41.906010636519V162.65551727598zM413.39157775028 27.347225474128h-41.906010636519v41.888885172425h41.906010636519V27.347225474128zM413.39157775028 96.636853195973h-41.906010636519v41.854634244239h41.906010636519V96.636853195973zM413.39157775028 162.65551727598h-41.906010636519v41.888885172425h41.906010636519V162.65551727598zM490.67879720373 27.347225474128h-41.871759708332v41.888885172425h41.871759708332V27.347225474128zM490.67879720373 96.636853195973h-41.871759708332v41.854634244239h41.871759708332 V96.636853195973zM490.67879720373 162.65551727598h-41.871759708332v41.888885172425h41.871759708332V162.65551727598zM516.46974612837 240.98739003913H244.2091179717V278.04689433722h27.589122654447v-18.529752149045h217.11663377596V278.04689433722h27.55487172626V240.98739003913zM60.538515570124 -64h109.56871926949V338.12302237683H60.538515570124V-64zM460.07559286885 406.72763153494h-154.62581529919V421.23289962204h154.62581529919V406.72763153494zM460.07559286885 368.07545907616h-154.62581529919V382.54647623507h154.62581529919V368.07545907616z"/><glyph unicode="&#xE00F;" glyph-name="open116" horiz-adv-x="512" d="M180 89.64l131.536 0l0 -16.264l-128 0ZM180 62.728l151.336 0l0 -16.264l-144 0ZM180 117.432l151.336 0l0 -16.264l-144 0ZM54 192l151.336 0l0 -16.264l-144 0ZM463.336 204.664H406v-77.336h57.336V204.664zM455.336 135.336H414v61.336h41.336V135.336zM420 192.232l29.336 0l0 -52.472l-24 0ZM503.656 262.16l-17.4 56.912c-0.576 1.88 -1.832 3.496 -3.52 4.504C476.232 327.496 326.12 417.64 260.272 421.696 c-0.328 0.04 -0.624 0.192 -0.96 0.192c-0.56 0 -1.176 -0.064 -1.752 -0.08c-0.568 0.016 -1.192 0.08 -1.752 0.08 c-0.344 0 -0.632 -0.152 -0.96 -0.192C189.008 417.64 38.896 327.496 32.392 323.576c-1.824 -1.096 -3.136 -2.88 -3.64 -4.952l-13.904 -56.912 c-0.088 -0.376 -0.008 -0.736 -0.048 -1.104c-0.032 -0.272 -0.184 -0.512 -0.184 -0.792v-238.712c0 -4.416 3.584 -8 8 -8H496c4.416 0 8 3.584 8 8 V259.816c0 0.312 -0.168 0.576 -0.208 0.88C503.744 261.184 503.8 261.672 503.656 262.16zM43.504 311.568 c21.48 12.728 158.44 92.608 214.056 94.24c55.816 -1.632 193.568 -82.088 214.288 -94.376l14.08 -46.072L349.2 228.144l-180.744 0.048 L32.24 265.48L43.504 311.568zM488 29.104H30.624V249.336l134.64 -36.856c0.688 -0.192 1.4 -0.288 2.112 -0.288l182.896 -0.048c0 0 0 0 0 0 c0.712 0 1.416 0.096 2.104 0.28L488 249.344V29.104z"/><glyph unicode="&#xE010;" glyph-name="opera" horiz-adv-x="512" d="M437.81907692308 118.03569230769l-49.841230769231 134.36061538462c-0.45292307692308 1.8904615384615 -1.28 3.6430769230769 -2.304 5.2972307692308V258.79630769231L385.45723076923 260.13538461538h-0.70892307692308 c-2.4615384615385 13.745230769231 -11.086769230769 25.225846153846 -22.941538461538 31.724307692308c-0.15753846153846 15.832615384615 -13.016615384615 28.593230769231 -28.908307692308 28.593230769231c-15.990153846154 0 -28.947692307692 -12.977230769231 -28.947692307692 -28.947692307692 c0 -1.9101538461538 0.21661538461538 -3.7612307692308 0.55138461538462 -5.5532307692308c-9.8855384615385 -6.5772307692308 -17.604923076923 -15.478153846154 -19.456 -25.639384615385L256.78769230769 260.43076923077c-1.792 9.6295384615385 -8.9206153846154 18.097230769231 -18.136615384615 24.576 c0.49230769230769 2.0873846153846 0.82707692307692 4.2732307692308 0.82707692307692 6.4984615384615c0 15.990153846154 -12.957538461538 28.947692307692 -28.947692307692 28.947692307692c-15.616 0 -28.238769230769 -12.406153846154 -28.849230769231 -27.864615384615 C168.68430769231 286.10953846154 159.19261538462 273.68369230769 156.98707692308 258.75692307692C155.51015384615 256.84676923077 154.30892307692 254.75938461538 153.73784615385 252.39630769231l-54.764307692308 -134.36061538462c-1.6344615384615 -5.8092307692308 -2.4418461538462 -11.559384615385 -2.4418461538462 -17.191384615385 c0 -41.432615384615 41.787076923077 -76.366769230769 91.273846153846 -76.366769230769c34.225230769231 0 64.807384615385 16.738461538462 80.403692307692 40.743384615385c15.320615384615 -24.201846153846 45.725538461538 -40.743384615385 80.718769230769 -40.743384615385 c50.353230769231 0 91.332923076923 34.244923076923 91.332923076923 76.366769230769C440.22153846154 106.47630769231 439.41415384615 112.22646153846 437.81907692308 118.03569230769zM185.28492307692 44.051692307692c-34.284307692308 0 -62.089846153846 27.766153846154 -62.089846153846 62.089846153846 c0 34.284307692308 27.805538461538 62.030769230769 62.089846153846 62.030769230769s62.109538461538 -27.746461538462 62.109538461538 -62.030769230769C247.39446153846 71.817846153846 219.58892307692 44.051692307692 185.28492307692 44.051692307692zM268.38646153846 139.42153846154 c-13.312 0 -24.024615384615 10.752 -24.024615384615 24.064c0 13.292307692308 10.712615384615 24.064 24.024615384615 24.064s24.064 -10.771692307692 24.064 -24.064C292.45046153846 150.17353846154 281.69846153846 139.42153846154 268.38646153846 139.42153846154 zM354.48123076923 44.051692307692c-34.284307692308 0 -62.050461538462 27.766153846154 -62.050461538462 62.089846153846c0 34.284307692308 27.766153846154 62.030769230769 62.050461538462 62.030769230769c34.304 0 62.109538461538 -27.746461538462 62.109538461538 -62.030769230769 C416.59076923077 71.817846153846 388.78523076923 44.051692307692 354.48123076923 44.051692307692zM183.00061538462 66.540307692308c-21.996307692308 0 -39.857230769231 17.841230769231 -39.857230769231 39.837538461538c0 1.1224615384615 0.059076923076923 2.1858461538462 0.17723076923077 3.2886153846154c-2.1661538461538 -4.864 -3.3083076923077 -10.259692307692 -3.3083076923077 -15.950769230769 c0 -21.996307692308 17.801846153846 -39.837538461538 39.837538461538 -39.837538461538c20.893538461538 0 38.025846153846 16.088615384615 39.699692307692 36.568615384615C213.34646153846 76.386461538462 199.32553846154 66.540307692308 183.00061538462 66.540307692308zM379.49046153846 73.097846153846c-18.097230769231 -12.425846153846 -42.968615384615 -7.7981538461538 -55.394461538462 10.338461538462c-0.57107692307692 0.92553846153846 -1.1815384615385 1.8510769230769 -1.7132307692308 2.816 c1.0436923076923 -5.2381538461538 3.0916923076923 -10.358153846154 6.3015384615385 -15.025230769231c12.406153846154 -18.176 37.238153846154 -22.823384615385 55.394461538462 -10.358153846154c17.250461538462 11.815384615385 22.252307692308 34.796307692308 12.012307692308 52.598153846154 C398.98584615385 98.402461538462 392.97969230769 82.353230769231 379.49046153846 73.097846153846z"/><glyph unicode="&#xE011;" glyph-name="person21" horiz-adv-x="512" d="M277.96 203h-44.472V-56H44.976V203H22.168v28.528h255.792V203zM390.28 350.448 c23.168 0 41.936 18.776 41.936 41.944c0 23.168 -18.776 41.944 -41.936 41.944c-23.168 0 -41.944 -18.776 -41.944 -41.944 C348.336 369.224 367.112 350.448 390.28 350.448zM409.784 100.784c0.128 0.048 0.248 0.136 0.376 0.184 c0.968 0.488 1.92 0.944 2.872 1.456l0.064 0.168c6.8 4.264 12.28 11.184 14.968 21.2c14.832 55.224 16.936 115.896 22.856 172.688 c2.096 20.12 -18.856 36.936 -37.344 36.816c-18.256 -0.128 -30.2 -12.096 -34.88 -27.736c-0.056 -0.064 -0.136 -0.096 -0.176 -0.168 c-26.456 -29.168 -62.52 -25.896 -97.608 -18.496l8.432 5.52l-4.752 4.448l6 6.456l-65.704 61.04l-35.728 -38.464l55.192 -51.28 c-4.968 -11.928 -1.488 -27.168 14.672 -30.848c38.424 -8.736 78.488 -13.224 113.048 0.728c-3.072 -34.36 -6.752 -68.528 -15.608 -101.528 c-0.016 -0.064 -0.032 -0.136 -0.048 -0.192c-36.296 -2.36 -74.576 -8.416 -89.784 -22.864c-20.304 -19.312 -25.408 -78.608 -15.168 -153.152 c1.664 -12.016 11.944 -20.728 23.728 -20.728c1.104 0 2.184 0.088 3.296 0.224c13.136 1.808 22.312 13.904 20.504 27.032 c-8.36 60.856 0.664 111.576 0.664 111.576S357.752 74.816 409.784 100.784zM478.816 196.168c-1.808 1.84 -4.296 2.816 -7.192 2.816 c-8.64 0 -19.776 -8.848 -19.936 -18.8c-0.48 -27.56 -4.28 -62.248 -29.64 -85.968c-17.36 -16.224 -43.312 -24.128 -79.344 -24.128 c-5.12 0 -10.152 0.168 -15.064 0.408h-0.608c-9.68 0 -18.568 -11.64 -18.824 -20.824c-0.16 -6.496 3.984 -10.728 10.808 -11.064 c15.52 -0.776 39.712 -0.176 53.6 1.832v-56.232c-7.352 -2.608 -14.44 -6.56 -21.024 -11.752c-7.352 -5.76 -8.64 -14.344 -6.728 -19.88 c1.624 -4.696 8.432 4.104 13.016 4.104c3.328 0 6.824 7.28 10.384 10.08c4.6 3.608 4.44 5.832 7.128 6.704L374.56 -29.84 c3.984 0 2.544 -6.88 8.032 -12.048c0.936 -0.872 1.952 -1.328 2.968 -1.328c5.784 0 9.368 -12.64 10.456 0.168 c0.28 3.168 0 5.888 -0.56 8.28c0.128 0 0.24 -0.048 0.376 -0.048c8.72 0 14.12 -8.224 15.736 0.12 c1.248 6.336 -1.344 11.496 -6.936 13.752c-6.32 2.568 -12.816 4.32 -19.32 5.208c0 0.12 0 0.232 0 0.36v60.184 c15.656 5.44 38.536 16.232 50.752 26.344c36.824 30.52 45.272 79.64 45.888 115.48C482.016 190.776 480.968 193.984 478.816 196.168z"/><glyph unicode="&#xE012;" glyph-name="personal7" horiz-adv-x="512" d="M499.248 179.272c0 0 -1.248 20.472 -3.752 27.976s-2.496 7.504 1.248 12.248s-11 1.504 -13.504 1s-1.504 -2.248 -1.504 -2.248 c-29 -1.248 -95.504 36 -148.248 41.248s-104.248 0.248 -123.248 -4.248s-81.504 -38.248 -88.496 -40s-4 1.752 -4 1.752 C81.752 215.504 20 184.752 20 184.752c-2.496 -1.752 -4.496 -12 -4.496 -12l1.248 -3.504c-10.248 -9.504 -7.248 -29.504 -7.248 -29.504 l5.016 1.752c1.768 -3.248 2.232 -10.496 2.232 -10.496c-8.496 -4 -2.248 -7.504 -2.248 -7.504s3.752 3.248 19 -1.504 c5.888 -1.832 19.008 -2.472 32.896 -2.568c-1.952 4.928 -3.064 10.28 -3.064 15.896c0 23.896 19.44 43.336 43.336 43.336 s43.336 -19.44 43.336 -43.336c0 -5.192 -0.968 -10.152 -2.648 -14.776l222.496 0.376c-1.6 4.512 -2.512 9.344 -2.512 14.4 c0 23.896 19.44 43.336 43.336 43.336s43.336 -19.44 43.336 -43.336c0 -4.448 -0.68 -8.744 -1.928 -12.784c22.144 5.12 47.928 8.704 47.928 8.704 l4.752 6.248c0 0 3.752 26.752 0 31S499.248 179.272 499.248 179.272zM106.664 100c14.216 0 26.384 8.44 31.992 20.544c2.088 4.512 3.336 9.488 3.336 14.792c0 19.512 -15.816 35.336 -35.336 35.336 c-19.512 0 -35.336 -15.816 -35.336 -35.336c0 -5.744 1.504 -11.096 3.936 -15.888C81.104 107.952 92.896 100 106.664 100zM410.664 100c14.048 0 26.08 8.264 31.768 20.136c2.216 4.616 3.56 9.736 3.56 15.2c0 19.512 -15.816 35.336 -35.336 35.336 c-19.512 0 -35.336 -15.816 -35.336 -35.336c0 -5.136 1.152 -9.984 3.12 -14.384C383.968 108.624 396.288 100 410.664 100z"/><glyph unicode="&#xE013;" glyph-name="postage" horiz-adv-x="512" d="M416 352L96 352 l0 -320 l320 -0 L416 352 zM128 320l96 -0 l0 -32 L128 288 L128 320 zM128 224l160 -0 l0 -32 L128 192 L128 224 zM256 64L128 64 l0 32 l128 -0 L256 64 zM352 128L128 128 L128 160 l224 -0 L352 128 zM384 288l-32 -0 L352 320 l32 -0 L384 288 zM512 352L512 416 c0 17.664 -14.304 32 -32 32l-64 -0 c0 -17.696 -14.304 -32 -32 -32s-32 14.304 -32 32L288 448 c0 -17.696 -14.304 -32 -32 -32 S224 430.304 224 448L160 448 c0 -17.696 -14.304 -32 -32 -32S96 430.304 96 448L32 448 C14.304 448 0 433.664 0 416l0 -64 c17.696 -0 32 -14.336 32 -32c0 -17.696 -14.304 -32 -32 -32l0 -64 c17.696 -0 32 -14.336 32 -32c0 -17.696 -14.304 -32 -32 -32l0 -64 c17.696 -0 32 -14.336 32 -32c0 -17.696 -14.304 -32 -32 -32l0 -64 c0 -17.696 14.304 -32 32 -32l64 -0 c0 17.664 14.304 32 32 32s32 -14.336 32 -32l64 -0 c0 17.664 14.304 32 32 32s32 -14.336 32 -32l64 -0 c0 17.664 14.304 32 32 32s32 -14.336 32 -32l64 -0 c17.696 -0 32 14.304 32 32l0 64 c-17.696 -0 -32 14.304 -32 32c0 17.664 14.304 32 32 32L512 160 c-17.696 -0 -32 14.304 -32 32c0 17.664 14.304 32 32 32L512 288 c-17.696 -0 -32 14.304 -32 32 C480 337.664 494.304 352 512 352zM448 0L64 0 L64 384 l384 -0 L448 0 z"/><glyph unicode="&#xE014;" glyph-name="print22" horiz-adv-x="512" d="M363.71968 342.06208H324.352v46.05952c0 6.91712 2.3808 6.91712 3.6608 6.91712c4.02944 0 9.89184 -3.4304 11.6224 -4.6336 c0.73216 -0.50688 1.59232 -0.77312 2.45248 -0.7936c2.51904 -0.0768 4.63872 1.93024 4.63872 4.4544c0 0.32256 -0.03072 0.64 -0.1024 0.94208 c-0.44032 19.03616 -14.15168 25.82016 -25.92768 25.82016c-0.49152 0 -0.82944 -0.01024 -0.89088 -0.02048H230.5792c-15.25248 0 -41.06752 -8.68352 -41.06752 -41.23136 c0 -11.61216 -0.10752 -24.832 -0.26112 -37.51936h-40.98048c-18.432 0 -33.42848 -14.99648 -33.42848 -33.4336v-312.02304c0 -18.43712 15.0016 -33.4336 33.42848 -33.4336h215.4496 c18.432 0 33.42848 14.99648 33.42848 33.4336V308.62848C397.14816 327.06048 382.15168 342.06208 363.71968 342.06208zM230.72768 411.89376c0.01024 0 0.01024 0 0.01024 0 L320.16896 411.904l0.52224 0.01024c4.09088 0 12.5184 -1.11104 15.73888 -9.78432c-2.6112 1.024 -5.56032 1.82272 -8.4224 1.82272c-3.77856 0 -12.57984 -1.54112 -12.57984 -15.83104 v-89.33376H197.50912c0.31232 17.42336 0.91136 53.48864 0.91136 80.7936C198.42048 410.97216 227.26144 411.89376 230.72768 411.89376zM374.87104 -3.39968 c0 -6.144 -5.00224 -11.14624 -11.15136 -11.14624h-215.4496c-6.13888 0 -11.14112 5.00224 -11.14112 11.14624V308.62848c0 6.144 5.00224 11.14624 11.14112 11.14624h40.66816 c-0.11776 -8.28416 -0.25088 -15.55456 -0.34816 -20.98688h-1.59232c-4.77184 0 -8.64256 -3.8656 -8.64256 -8.63744c0 -4.77184 3.87072 -8.63744 8.64256 -8.63744h138.17856 c4.77184 0 8.64256 3.8656 8.64256 8.63744c0 4.76672 -3.87072 8.63744 -8.64256 8.63744H324.352v20.98688h39.36768c6.14912 0 11.15136 -5.00224 11.15136 -11.14624V-3.39968zM353.32096 193.47968H158.67904V249.93792h194.64192V193.47968zM161.64864 128.8448v37.888h37.87776v-37.888H161.64864zM218.112 128.8448v37.888H256v-37.888H218.112zM273.82784 128.8448v37.888h37.888v-37.888H273.82784zM326.85056 129.3312v37.46304h27.29984v-37.46304H326.85056zM199.53152 78.6944h-37.87776v37.888h37.87776V78.6944zM256 78.6944 h-37.888v37.888H256V78.6944zM311.72096 78.6944h-37.888v37.888h37.888V78.6944zM162.0224 66.43712h37.888v-37.888h-37.888V66.43712zM218.48064 66.43712h37.888v-37.888h-37.888V66.43712zM274.2016 66.43712h37.888v-37.888h-37.888V66.43712zM326.56896 114.3552h27.48928v-84.32128h-27.48928V114.3552z"/><glyph unicode="&#xE015;" glyph-name="stamp1" horiz-adv-x="512" d="M512 32l0 -64 c0 -17.696 -14.304 -32 -32 -32l-64 -0 c0 17.664 -14.304 32 -32 32s-32 -14.336 -32 -32 L288 -64 c0 17.664 -14.304 32 -32 32s-32 -14.336 -32 -32L160 -64 c0 17.664 -14.304 32 -32 32s-32 -14.336 -32 -32L32 -64 c-17.696 -0 -32 14.304 -32 32l0 64 c17.696 -0 32 14.304 32 32 c0 17.664 -14.304 32 -32 32L0 160 c17.696 -0 32 14.304 32 32c0 17.664 -14.304 32 -32 32L0 288 c17.696 -0 32 14.304 32 32c0 17.664 -14.304 32 -32 32L0 416 c0 17.664 14.304 32 32 32 l64 -0 c0 -17.696 14.304 -32 32 -32s32 14.304 32 32l64 -0 c0 -17.696 14.304 -32 32 -32s32 14.304 32 32l64 -0 c0 -17.696 14.304 -32 32 -32s32 14.304 32 32l64 -0 c17.696 -0 32 -14.336 32 -32l0 -64 c-17.696 -0 -32 -14.336 -32 -32c0 -17.696 14.304 -32 32 -32l0 -64 c-17.696 -0 -32 -14.336 -32 -32c0 -17.696 14.304 -32 32 -32l0 -64 c-17.696 -0 -32 -14.336 -32 -32 C480 46.304 494.304 32 512 32zM448 384L64 384 l0 -384 l384 -0 L448 384 zM416 32L96 32 L96 352 l320 -0 L416 32 zM384 320L128 320 l0 -256 l256 -0 L384 320 z"/><glyph unicode="&#xE016;" glyph-name="user3" horiz-adv-x="582" d="M581.81818181818 -64c0 0 -1.1461818181818 110.16145454545 -7.8778181818182 121.57672727273c-10.013090909091 17.006545454545 -33.332363636364 28.695272727273 -76.625454545455 46.784c-43.147636363636 18.042181818182 -56.942545454545 33.256727272727 -56.942545454545 65.838545454545 c0 19.572363636364 13.172363636364 13.172363636364 18.967272727273 48.983272727273c2.3970909090909 14.865454545455 14.033454545455 0.25018181818182 16.261818181818 34.164363636364c0 13.521454545455 -6.3534545454545 16.890181818182 -6.3534545454545 16.890181818182s3.2290909090909 19.997090909091 4.4858181818182 35.397818181818 c1.5709090909091 19.188363636364 -9.6698181818182 68.741818181818 -69.556363636364 68.741818181818c-59.898181818182 0 -71.127272727273 -49.559272727273 -69.556363636364 -68.741818181818c1.2625454545455 -15.400727272727 4.48 -35.397818181818 4.48 -35.397818181818 s-6.3418181818182 -3.3687272727273 -6.3418181818182 -16.890181818182c2.2283636363636 -33.914181818182 13.853090909091 -19.298909090909 16.261818181818 -34.164363636364c5.7832727272727 -35.810909090909 18.967272727273 -29.416727272727 18.967272727273 -48.983272727273c0 -22.149818181818 -6.4116363636364 -36.276363636364 -24.069818181818 -48.727272727273 c94.272 -47.191272727273 106.90909090909 -56.808727272727 106.90909090909 -98.996363636364V-64H581.81818181818zM297.408 87.988363636364c-57.547636363636 24.052363636364 -75.933090909091 44.340363636364 -75.933090909091 87.773090909091 c0 26.082909090909 17.570909090909 17.565090909091 25.285818181818 65.326545454545c3.1941818181818 19.805090909091 18.717090909091 0.32581818181818 21.684363636364 45.550545454545c0 18.024727272727 -8.4654545454545 22.504727272727 -8.4654545454545 22.504727272727s4.3054545454545 26.664727272727 5.9869090909091 47.197090909091 C268.05527272727 381.92290909091 253.07927272727 448 173.21309090909 448C93.364363636364 448 78.376727272727 381.92290909091 80.477090909091 356.34036363636c1.6814545454545 -20.532363636364 5.9752727272727 -47.197090909091 5.9752727272727 -47.197090909091 s-8.4654545454545 -4.48 -8.4654545454545 -22.504727272727c2.9789090909091 -45.224727272727 18.490181818182 -25.745454545455 21.696 -45.550545454545c7.7149090909091 -47.755636363636 25.285818181818 -39.237818181818 25.285818181818 -65.326545454545 c0 -43.432727272727 -18.397090909091 -63.720727272727 -75.933090909091 -87.773090909091C31.499636363636 80.657454545455 0 69.306181818182 0 41.989818181818V-64h404.18327272727c0 0 0 62.696727272727 0 79.470545454545 C404.18327272727 40.384 355.12436363636 63.854545454545 297.408 87.988363636364z"/><glyph unicode="&#xE017;" glyph-name="user37" horiz-adv-x="512" d="M0 -64h512v128c0 0 0 64 -64 64c-32 0 -320 0 -384 0s-64 -64 -64 -64V-64zM128 288C128 358.692448 185.307552 416 256 416C326.692448 416 384 358.692448 384 288C384 217.307552 326.692448 160 256 160C185.307552 160 128 217.307552 128 288Z"/></font></defs></svg>
